[
    {
        "vault": [
            "ILOVELYNN",
            "ILOVELYNN"
        ],
        "kl_rank": 0,
        "decoy_rank": 0,
        "real_rank": 1,
        "combined_rank": 0
    },
    {
        "vault": [
            "1177716",
            "1177716",
            "1177716"
        ],
        "kl_rank": 0,
        "decoy_rank": 0,
        "real_rank": 0,
        "combined_rank": 0
    },
    {
        "vault": [
            "898898",
            "898898",
            "898898"
        ],
        "kl_rank": 0,
        "decoy_rank": 0,
        "real_rank": 0,
        "combined_rank": 0
    },
    {
        "vault": [
            "9olu89m",
            "9olu89m",
            "9olu89m"
        ],
        "kl_rank": 0,
        "decoy_rank": 0,
        "real_rank": 0,
        "combined_rank": 0
    },
    {
        "vault": [
            "heroes24",
            "heroes24",
            "heroes24"
        ],
        "kl_rank": 0,
        "decoy_rank": 1,
        "real_rank": 1,
        "combined_rank": 0
    },
    {
        "vault": [
            "puddin",
            "puddin",
            "puddin"
        ],
        "kl_rank": 10,
        "decoy_rank": 3,
        "real_rank": 2,
        "combined_rank": 1
    },
    {
        "vault": [
            "-13birch-",
            "-13birch-"
        ],
        "kl_rank": 0,
        "decoy_rank": 5,
        "real_rank": 3,
        "combined_rank": 4
    },
    {
        "vault": [
            "popcorn",
            "popcorn",
            "popcorn"
        ],
        "kl_rank": 26,
        "decoy_rank": 14,
        "real_rank": 8,
        "combined_rank": 8
    },
    {
        "vault": [
            "k13456",
            "k13456"
        ],
        "kl_rank": 0,
        "decoy_rank": 60,
        "real_rank": 54,
        "combined_rank": 57
    },
    {
        "vault": [
            "60f234e7",
            "60f234e7"
        ],
        "kl_rank": 0,
        "decoy_rank": 65,
        "real_rank": 56,
        "combined_rank": 56
    },
    {
        "vault": [
            "9002",
            "9002"
        ],
        "kl_rank": 0,
        "decoy_rank": 69,
        "real_rank": 84,
        "combined_rank": 66
    },
    {
        "vault": [
            "hide2.",
            "hide2."
        ],
        "kl_rank": 0,
        "decoy_rank": 72,
        "real_rank": 51,
        "combined_rank": 62
    },
    {
        "vault": [
            "5065221",
            "5065221"
        ],
        "kl_rank": 0,
        "decoy_rank": 75,
        "real_rank": 80,
        "combined_rank": 71
    },
    {
        "vault": [
            "1024",
            "1024"
        ],
        "kl_rank": 0,
        "decoy_rank": 81,
        "real_rank": 99,
        "combined_rank": 80
    },
    {
        "vault": [
            "alec3668",
            "alec3668"
        ],
        "kl_rank": 0,
        "decoy_rank": 82,
        "real_rank": 72,
        "combined_rank": 72
    },
    {
        "vault": [
            "teepu68",
            "teepu68"
        ],
        "kl_rank": 0,
        "decoy_rank": 84,
        "real_rank": 60,
        "combined_rank": 68
    },
    {
        "vault": [
            "bob12345",
            "bob12345"
        ],
        "kl_rank": 0,
        "decoy_rank": 86,
        "real_rank": 76,
        "combined_rank": 75
    },
    {
        "vault": [
            "baseball",
            "baseball",
            "baseball"
        ],
        "kl_rank": 33,
        "decoy_rank": 99,
        "real_rank": 76,
        "combined_rank": 77
    },
    {
        "vault": [
            "taurus90",
            "taurus90"
        ],
        "kl_rank": 0,
        "decoy_rank": 113,
        "real_rank": 106,
        "combined_rank": 106
    },
    {
        "vault": [
            "hellomoto23",
            "hellomoto23"
        ],
        "kl_rank": 0,
        "decoy_rank": 114,
        "real_rank": 121,
        "combined_rank": 113
    },
    {
        "vault": [
            "9111995",
            "9111995"
        ],
        "kl_rank": 0,
        "decoy_rank": 139,
        "real_rank": 88,
        "combined_rank": 100
    },
    {
        "vault": [
            "monkey12",
            "monkey12"
        ],
        "kl_rank": 32,
        "decoy_rank": 151,
        "real_rank": 150,
        "combined_rank": 149
    },
    {
        "vault": [
            "k9meeko",
            "k9meeko"
        ],
        "kl_rank": 0,
        "decoy_rank": 157,
        "real_rank": 131,
        "combined_rank": 138
    },
    {
        "vault": [
            "warwick123",
            "warwick123"
        ],
        "kl_rank": 0,
        "decoy_rank": 186,
        "real_rank": 199,
        "combined_rank": 201
    },
    {
        "vault": [
            "live",
            "live"
        ],
        "kl_rank": 13,
        "decoy_rank": 192,
        "real_rank": 147,
        "combined_rank": 177
    },
    {
        "vault": [
            "dannyy1",
            "dannyy1"
        ],
        "kl_rank": 0,
        "decoy_rank": 195,
        "real_rank": 157,
        "combined_rank": 183
    },
    {
        "vault": [
            "gta4fav",
            "gta4fav"
        ],
        "kl_rank": 0,
        "decoy_rank": 200,
        "real_rank": 149,
        "combined_rank": 171
    },
    {
        "vault": [
            "joebones17",
            "joebones17"
        ],
        "kl_rank": 0,
        "decoy_rank": 209,
        "real_rank": 180,
        "combined_rank": 197
    },
    {
        "vault": [
            "peggy",
            "peggy"
        ],
        "kl_rank": 0,
        "decoy_rank": 210,
        "real_rank": 148,
        "combined_rank": 179
    },
    {
        "vault": [
            "1khc2fjr3ne",
            "1khc2fjr3ne"
        ],
        "kl_rank": 0,
        "decoy_rank": 216,
        "real_rank": 230,
        "combined_rank": 225
    },
    {
        "vault": [
            "austin",
            "austin"
        ],
        "kl_rank": 370,
        "decoy_rank": 223,
        "real_rank": 215,
        "combined_rank": 223
    },
    {
        "vault": [
            "devinlol",
            "devinlol"
        ],
        "kl_rank": 0,
        "decoy_rank": 228,
        "real_rank": 195,
        "combined_rank": 213
    },
    {
        "vault": [
            "ginger",
            "ginger"
        ],
        "kl_rank": 391,
        "decoy_rank": 257,
        "real_rank": 207,
        "combined_rank": 243
    },
    {
        "vault": [
            "resident2",
            "resident2"
        ],
        "kl_rank": 13,
        "decoy_rank": 263,
        "real_rank": 279,
        "combined_rank": 271
    },
    {
        "vault": [
            "free",
            "free"
        ],
        "kl_rank": 20,
        "decoy_rank": 279,
        "real_rank": 277,
        "combined_rank": 285
    },
    {
        "vault": [
            "chloe21",
            "chloe21"
        ],
        "kl_rank": 8,
        "decoy_rank": 297,
        "real_rank": 317,
        "combined_rank": 311
    },
    {
        "vault": [
            "haloguy111",
            "haloguy111"
        ],
        "kl_rank": 0,
        "decoy_rank": 306,
        "real_rank": 260,
        "combined_rank": 288
    },
    {
        "vault": [
            "dryice1",
            "dryice1"
        ],
        "kl_rank": 0,
        "decoy_rank": 327,
        "real_rank": 303,
        "combined_rank": 321
    },
    {
        "vault": [
            "3AZUTA",
            "3azuta"
        ],
        "kl_rank": 24,
        "decoy_rank": 366,
        "real_rank": 587,
        "combined_rank": 500
    },
    {
        "vault": [
            "rdhmeltk",
            "rdhmeltk"
        ],
        "kl_rank": 0,
        "decoy_rank": 404,
        "real_rank": 396,
        "combined_rank": 408
    },
    {
        "vault": [
            "broncos1",
            "broncos1"
        ],
        "kl_rank": 31,
        "decoy_rank": 406,
        "real_rank": 398,
        "combined_rank": 412
    },
    {
        "vault": [
            "kingkilla1",
            "kingkilla1"
        ],
        "kl_rank": 0,
        "decoy_rank": 417,
        "real_rank": 407,
        "combined_rank": 419
    },
    {
        "vault": [
            "mugen511",
            "00004561M",
            "00004561M"
        ],
        "kl_rank": 5,
        "decoy_rank": 428,
        "real_rank": 511,
        "combined_rank": 492
    },
    {
        "vault": [
            "vanilla",
            "vanilla"
        ],
        "kl_rank": 225,
        "decoy_rank": 433,
        "real_rank": 399,
        "combined_rank": 423
    },
    {
        "vault": [
            "eatalltacos",
            "eatalltacos"
        ],
        "kl_rank": 0,
        "decoy_rank": 488,
        "real_rank": 492,
        "combined_rank": 499
    },
    {
        "vault": [
            "psalty",
            "psalty"
        ],
        "kl_rank": 0,
        "decoy_rank": 490,
        "real_rank": 470,
        "combined_rank": 484
    },
    {
        "vault": [
            "1234567",
            "123456",
            "123456"
        ],
        "kl_rank": 962,
        "decoy_rank": 493,
        "real_rank": 484,
        "combined_rank": 489
    },
    {
        "vault": [
            "123456",
            "JFtvJ504NA=="
        ],
        "kl_rank": 458,
        "decoy_rank": 493,
        "real_rank": 569,
        "combined_rank": 524
    },
    {
        "vault": [
            "SiEVuighmR",
            "HJYqRjLk9o",
            "JS0ArxqmF7"
        ],
        "kl_rank": 230,
        "decoy_rank": 496,
        "real_rank": 808,
        "combined_rank": 684
    },
    {
        "vault": [
            "kaikai1",
            "kaikai1"
        ],
        "kl_rank": 14,
        "decoy_rank": 498,
        "real_rank": 495,
        "combined_rank": 504
    },
    {
        "vault": [
            "Cartman117",
            "Cartman117",
            "Cartman1"
        ],
        "kl_rank": 6,
        "decoy_rank": 504,
        "real_rank": 670,
        "combined_rank": 521
    },
    {
        "vault": [
            "d0d0tr1X.",
            "dodotrix",
            "dodotrix"
        ],
        "kl_rank": 4,
        "decoy_rank": 509,
        "real_rank": 493,
        "combined_rank": 500
    },
    {
        "vault": [
            "nohackersallowed]",
            "nohackersallowed]",
            "andrew1"
        ],
        "kl_rank": 8,
        "decoy_rank": 517,
        "real_rank": 506,
        "combined_rank": 508
    },
    {
        "vault": [
            "eissej",
            "eissej"
        ],
        "kl_rank": 0,
        "decoy_rank": 523,
        "real_rank": 488,
        "combined_rank": 513
    },
    {
        "vault": [
            "basketball",
            "basketball"
        ],
        "kl_rank": 415,
        "decoy_rank": 541,
        "real_rank": 534,
        "combined_rank": 545
    },
    {
        "vault": [
            "scott1",
            "scott1"
        ],
        "kl_rank": 28,
        "decoy_rank": 543,
        "real_rank": 536,
        "combined_rank": 542
    },
    {
        "vault": [
            "Jalon08#7",
            "Da0aa3Se4jo5"
        ],
        "kl_rank": 32,
        "decoy_rank": 545,
        "real_rank": 807,
        "combined_rank": 671
    },
    {
        "vault": [
            "123456",
            "gHto4tQSyJ"
        ],
        "kl_rank": 465,
        "decoy_rank": 549,
        "real_rank": 740,
        "combined_rank": 602
    },
    {
        "vault": [
            "cermeno",
            "cermeno",
            "quixote1"
        ],
        "kl_rank": 1,
        "decoy_rank": 576,
        "real_rank": 562,
        "combined_rank": 569
    },
    {
        "vault": [
            "t1n9b4",
            "t1n9b4",
            "abdulbasith"
        ],
        "kl_rank": 5,
        "decoy_rank": 580,
        "real_rank": 557,
        "combined_rank": 572
    },
    {
        "vault": [
            "tara",
            "tara"
        ],
        "kl_rank": 0,
        "decoy_rank": 583,
        "real_rank": 584,
        "combined_rank": 588
    },
    {
        "vault": [
            "BOS08051585",
            "bos08051585@boingo.com"
        ],
        "kl_rank": 25,
        "decoy_rank": 585,
        "real_rank": 807,
        "combined_rank": 700
    },
    {
        "vault": [
            "enycegirlie",
            "enycegirlie",
            "enycegirlie1"
        ],
        "kl_rank": 5,
        "decoy_rank": 602,
        "real_rank": 586,
        "combined_rank": 600
    },
    {
        "vault": [
            "moneymaker",
            "moneymaker",
            "money"
        ],
        "kl_rank": 480,
        "decoy_rank": 605,
        "real_rank": 588,
        "combined_rank": 598
    },
    {
        "vault": [
            "rangers.1",
            "rangers.1",
            "callumburns1"
        ],
        "kl_rank": 4,
        "decoy_rank": 622,
        "real_rank": 568,
        "combined_rank": 592
    },
    {
        "vault": [
            "Sebismybro1",
            "sebismybro",
            "sebismybro"
        ],
        "kl_rank": 3,
        "decoy_rank": 624,
        "real_rank": 695,
        "combined_rank": 662
    },
    {
        "vault": [
            "rhavae7",
            "mikeisha91",
            "mikeisha91"
        ],
        "kl_rank": 2,
        "decoy_rank": 677,
        "real_rank": 643,
        "combined_rank": 662
    },
    {
        "vault": [
            "jillxsheva",
            "jillxrebecca",
            "jillxrebecca"
        ],
        "kl_rank": 2,
        "decoy_rank": 677,
        "real_rank": 670,
        "combined_rank": 680
    },
    {
        "vault": [
            "Password",
            "PasswordR#"
        ],
        "kl_rank": 360,
        "decoy_rank": 700,
        "real_rank": 799,
        "combined_rank": 795
    },
    {
        "vault": [
            "Bears",
            "Chicago5"
        ],
        "kl_rank": 21,
        "decoy_rank": 709,
        "real_rank": 827,
        "combined_rank": 805
    },
    {
        "vault": [
            "ichigobankai",
            "ichigobankai",
            "deathreaper"
        ],
        "kl_rank": 2,
        "decoy_rank": 709,
        "real_rank": 699,
        "combined_rank": 709
    },
    {
        "vault": [
            "matthew1",
            "matthew1",
            "matthew321"
        ],
        "kl_rank": 277,
        "decoy_rank": 722,
        "real_rank": 711,
        "combined_rank": 720
    },
    {
        "vault": [
            "123456789oO",
            "zippo95688"
        ],
        "kl_rank": 33,
        "decoy_rank": 738,
        "real_rank": 796,
        "combined_rank": 776
    },
    {
        "vault": [
            "sophie2005",
            "1989"
        ],
        "kl_rank": 334,
        "decoy_rank": 813,
        "real_rank": 813,
        "combined_rank": 813
    },
    {
        "vault": [
            "6463973",
            "jigga123"
        ],
        "kl_rank": 34,
        "decoy_rank": 813,
        "real_rank": 809,
        "combined_rank": 812
    },
    {
        "vault": [
            "sassydog",
            "F00tball1"
        ],
        "kl_rank": 24,
        "decoy_rank": 817,
        "real_rank": 918,
        "combined_rank": 842
    },
    {
        "vault": [
            "capercato",
            "Daisy26000"
        ],
        "kl_rank": 22,
        "decoy_rank": 826,
        "real_rank": 889,
        "combined_rank": 838
    },
    {
        "vault": [
            "purple1966",
            "purple"
        ],
        "kl_rank": 405,
        "decoy_rank": 832,
        "real_rank": 814,
        "combined_rank": 824
    },
    {
        "vault": [
            "bardiabardia",
            "choretsham",
            "choretSHAM"
        ],
        "kl_rank": 204,
        "decoy_rank": 842,
        "real_rank": 916,
        "combined_rank": 886
    },
    {
        "vault": [
            "b100b317t",
            "b100b317o"
        ],
        "kl_rank": 34,
        "decoy_rank": 843,
        "real_rank": 894,
        "combined_rank": 861
    },
    {
        "vault": [
            "slipknot666",
            "slipknot666sk8"
        ],
        "kl_rank": 33,
        "decoy_rank": 848,
        "real_rank": 835,
        "combined_rank": 842
    },
    {
        "vault": [
            "chilita27",
            "purple27r"
        ],
        "kl_rank": 36,
        "decoy_rank": 853,
        "real_rank": 852,
        "combined_rank": 851
    },
    {
        "vault": [
            "123456789oO",
            "password_",
            "passwordi"
        ],
        "kl_rank": 349,
        "decoy_rank": 863,
        "real_rank": 880,
        "combined_rank": 875
    },
    {
        "vault": [
            "mylife123",
            "1amigosporsiempre2"
        ],
        "kl_rank": 30,
        "decoy_rank": 889,
        "real_rank": 901,
        "combined_rank": 893
    },
    {
        "vault": [
            "chandler333",
            "chandler"
        ],
        "kl_rank": 373,
        "decoy_rank": 891,
        "real_rank": 902,
        "combined_rank": 897
    },
    {
        "vault": [
            "gifford",
            "gifford1"
        ],
        "kl_rank": 24,
        "decoy_rank": 893,
        "real_rank": 878,
        "combined_rank": 889
    },
    {
        "vault": [
            "pmb61515\\",
            "pmb61515m",
            "kunglao8i"
        ],
        "kl_rank": 218,
        "decoy_rank": 895,
        "real_rank": 892,
        "combined_rank": 894
    },
    {
        "vault": [
            "buddypinedjs2010@",
            "buddypinedjs",
            "buddypinedjs2009@"
        ],
        "kl_rank": 227,
        "decoy_rank": 895,
        "real_rank": 897,
        "combined_rank": 895
    },
    {
        "vault": [
            "me654321i",
            "me654321n",
            "me654321q"
        ],
        "kl_rank": 223,
        "decoy_rank": 896,
        "real_rank": 894,
        "combined_rank": 898
    },
    {
        "vault": [
            "yovier1234",
            "elnene1",
            "yovier012245"
        ],
        "kl_rank": 221,
        "decoy_rank": 900,
        "real_rank": 900,
        "combined_rank": 900
    },
    {
        "vault": [
            "dillon123",
            "dillon123!",
            "dillon"
        ],
        "kl_rank": 560,
        "decoy_rank": 901,
        "real_rank": 899,
        "combined_rank": 900
    },
    {
        "vault": [
            "pf1970emm",
            "pf1970eme",
            "pf1970eml"
        ],
        "kl_rank": 254,
        "decoy_rank": 934,
        "real_rank": 930,
        "combined_rank": 932
    },
    {
        "vault": [
            "monster1",
            "tucker",
            "tucker1"
        ],
        "kl_rank": 789,
        "decoy_rank": 942,
        "real_rank": 939,
        "combined_rank": 940
    },
    {
        "vault": [
            "rehmani619",
            "rehmani1"
        ],
        "kl_rank": 28,
        "decoy_rank": 943,
        "real_rank": 926,
        "combined_rank": 939
    },
    {
        "vault": [
            "ihatehacker",
            "dragon10o",
            "inuyasha10"
        ],
        "kl_rank": 225,
        "decoy_rank": 943,
        "real_rank": 954,
        "combined_rank": 948
    },
    {
        "vault": [
            "jessica123",
            "jessica"
        ],
        "kl_rank": 765,
        "decoy_rank": 995,
        "real_rank": 996,
        "combined_rank": 995
    },
    {
        "vault": [
            "tikibird1",
            "dspcws"
        ],
        "kl_rank": 28,
        "decoy_rank": 997,
        "real_rank": 995,
        "combined_rank": 996
    },
    {
        "vault": [
            "tamera11",
            "tamera1"
        ],
        "kl_rank": 30,
        "decoy_rank": 999,
        "real_rank": 999,
        "combined_rank": 999
    }
]