3.823
4.012
3.384
3.378
3.583
3.879
4.300
3.733
3.569
3.646
3.426
3.763
3.810
3.237
3.342
3.761
3.612
3.767
3.697
3.791
3.929
3.302
3.627
4.555
4.000
3.337
3.676
3.623
4.196
2.957
3.299
5.175
3.586
3.260
3.712
3.492
3.676
3.006
3.553
3.541
4.063
3.727
3.551
3.898
4.937
3.286
4.232
3.220
3.632
3.606
4.549
3.206
3.922
3.648
4.615
3.597
3.643
3.314
4.042
3.776
3.899
3.226
3.558
3.092
4.397
2.986
3.569
3.218
3.877
3.531
4.615
3.936
3.541
4.071
4.898
3.800
4.407
3.670
3.388
3.940
3.149
3.749
3.565
3.441
3.959
3.420
4.483
4.428
4.189
4.622
4.152
4.055
4.014
3.647
4.282
4.268
3.652
3.370
4.010
3.202
3.278
3.177
4.444
3.742
3.720
3.231
3.619
4.223
4.891
3.640
3.881
3.739
3.453
3.426
3.496
3.408
3.464
3.327
3.666
3.808
3.440
3.891
4.004
2.757
3.711
3.743
5.115
4.515
4.028
3.784
3.768
3.333
3.377
3.672
3.006
3.952
4.573
3.728
3.258
3.299
4.039
3.659
4.309
3.392
3.992
3.158
3.834
3.959
5.592
5.172
4.108
3.784
3.647
4.193
4.056
3.751
5.671
4.124
4.180
3.788
3.656
4.434
3.595
4.283
4.054
4.742
3.315
4.475
3.381
3.501
4.694
3.668
3.606
4.006
3.678
3.911
3.669
4.848
3.550
3.436
3.546
3.785
4.398
3.510
5.067
3.490
5.001
3.713
3.723
3.596
4.572
5.492
4.159
4.751
3.301
3.713
4.315
3.624
3.586
3.607
3.911
